mod6_sync_tb.vcd
$date
	Thu Dec 28 23:51:48 2023
$end
$version
	Icarus Verilog
$end
$timescale
	1ps
$end
$scope module mod6_sync_tb $end
$var wire 4 ! y [3:0] $end
$var reg 1 " clk $end
$var reg 1 # rst $end
$scope module uut $end
$var wire 1 " clk $end
$var wire 1 # rst $end
$var reg 4 $ counter [3:0] $end
$var reg 4 % y [3:0] $end
$upscope $end
$upscope $end
$enddefinitions $end
$comment Show the parameter values. $end
$dumpall
$end
#10000
$dumpvars
b0 %
b1 $
1#
0"
b0 !
$end
#15000
b1 !
b1 %
b10 $
1"
#20000
0"
0#
#25000
b0 !
b0 %
b0 $
1"
#30000
0"
#35000
1"
#40000
0"
1#
#45000
b1 $
1"
#50000
0"
#55000
b1 !
b1 %
b10 $
1"
#60000
0"
#65000
b10 !
b10 %
b11 $
1"
#70000
0"
#75000
b11 !
b11 %
b100 $
1"
#80000
0"
#85000
b100 !
b100 %
b101 $
1"
#90000
0"
#95000
b101 !
b101 %
b0 $
1"
#100000
0"
#105000
b0 !
b0 %
b1 $
1"
#110000
0"
#115000
b1 !
b1 %
b10 $
1"
#120000
0"
#125000
b10 !
b10 %
b11 $
1"
#130000
0"
#135000
b11 !
b11 %
b100 $
1"
