mod9_async_tb.vcd
$date
	Thu Dec 28 23:41:22 2023
$end
$version
	Icarus Verilog
$end
$timescale
	1ps
$end
$scope module mod9_async_tb $end
$var wire 5 ! y [4:0] $end
$var reg 1 " clk $end
$var reg 1 # rst $end
$scope module uut $end
$var wire 1 " clk $end
$var wire 1 # rst $end
$var reg 5 $ counter [4:0] $end
$var reg 5 % y [4:0] $end
$upscope $end
$upscope $end
$enddefinitions $end
$comment Show the parameter values. $end
$dumpall
$end
#10000
$dumpvars
b1 %
b10 $
1#
0"
b1 !
$end
#15000
b10 !
b10 %
b11 $
1"
#20000
0"
0#
#25000
b0 !
b0 %
b0 $
1"
#30000
0"
#35000
1"
#40000
b1 $
0"
1#
#45000
b1 !
b1 %
b10 $
1"
#50000
0"
#55000
b10 !
b10 %
b11 $
1"
#60000
0"
#65000
b11 !
b11 %
b100 $
1"
#70000
0"
#75000
b100 !
b100 %
b101 $
1"
#80000
0"
#85000
b101 !
b101 %
b110 $
1"
#90000
0"
#95000
b110 !
b110 %
b111 $
1"
#100000
0"
#105000
b111 !
b111 %
b1000 $
1"
#110000
0"
#115000
b1000 !
b1000 %
b0 $
1"
#120000
0"
#125000
b0 !
b0 %
b1 $
1"
#130000
0"
#135000
b1 !
b1 %
b10 $
1"
